{
  "data": [
    {
      "category": "3.10",
      "date": "2024-09",
      "downloads": 112
    },
    {
      "category": "3.10",
      "date": "2024-10",
      "downloads": 241
    },
    {
      "category": "3.10",
      "date": "2024-11",
      "downloads": 242
    },
    {
      "category": "3.10",
      "date": "2024-12",
      "downloads": 252
    },
    {
      "category": "3.10",
      "date": "2025-01",
      "downloads": 248
    },
    {
      "category": "3.10",
      "date": "2025-02",
      "downloads": 218
    },
    {
      "category": "3.10",
      "date": "2025-03",
      "downloads": 145
    },
    {
      "category": "3.11",
      "date": "2024-09",
      "downloads": 112
    },
    {
      "category": "3.11",
      "date": "2024-10",
      "downloads": 240
    },
    {
      "category": "3.11",
      "date": "2024-11",
      "downloads": 240
    },
    {
      "category": "3.11",
      "date": "2024-12",
      "downloads": 252
    },
    {
      "category": "3.11",
      "date": "2025-01",
      "downloads": 248
    },
    {
      "category": "3.11",
      "date": "2025-02",
      "downloads": 216
    },
    {
      "category": "3.11",
      "date": "2025-03",
      "downloads": 144
    },
    {
      "category": "3.12",
      "date": "2024-09",
      "downloads": 112
    },
    {
      "category": "3.12",
      "date": "2024-10",
      "downloads": 238
    },
    {
      "category": "3.12",
      "date": "2024-11",
      "downloads": 240
    },
    {
      "category": "3.12",
      "date": "2024-12",
      "downloads": 250
    },
    {
      "category": "3.12",
      "date": "2025-01",
      "downloads": 248
    },
    {
      "category": "3.12",
      "date": "2025-02",
      "downloads": 216
    },
    {
      "category": "3.12",
      "date": "2025-03",
      "downloads": 144
    },
    {
      "category": "3.9",
      "date": "2024-10",
      "downloads": 4
    },
    {
      "category": "3.9",
      "date": "2025-03",
      "downloads": 2
    },
    {
      "category": "null",
      "date": "2024-09",
      "downloads": 18
    },
    {
      "category": "null",
      "date": "2024-10",
      "downloads": 90
    },
    {
      "category": "null",
      "date": "2024-11",
      "downloads": 39
    },
    {
      "category": "null",
      "date": "2024-12",
      "downloads": 31
    },
    {
      "category": "null",
      "date": "2025-01",
      "downloads": 61
    },
    {
      "category": "null",
      "date": "2025-02",
      "downloads": 42
    },
    {
      "category": "null",
      "date": "2025-03",
      "downloads": 27
    }
  ],
  "package": "kutoa",
  "type": "python_minor_downloads"
}
